"shipment_id","country","account_type","account_name","sale_date","sale_item_category","buy_type","product_type","sale_item_id","product_name","item_amount","item_sub_total_amount","sale_total_amount","purchaser_type","purchaser_country","purchaser_id","purchaser_name","purchaser_company","shipping_addr","payment_status","payment_method","payment_data","payment_date","shipping_method","shipping_status","create_date"
"O000059O","Global","admin","admin@admin.com","2020-06-11","4","oversea","general","817-18","EXCLUSIVE WASHER FOR WINDOW CRYSTAL 18L","1","17215","17215","FC","Argentina","86","Test","Test","Test","-","amazon","","2020-06-11","INTERNATIONAL STANDARD SHIPMENT: EMS","Paid","2020-06-11 17:20:06"
"O000058O","Global","admin","admin@admin.com","2020-06-11","4","oversea","general","817-18","EXCLUSIVE WASHER FOR WINDOW CRYSTAL 18L","1","17215","17215","FC","Argentina","86","Test","Test","Test","-","amazon","","2020-06-11","INTERNATIONAL STANDARD SHIPMENT: EMS","Processing","2020-06-11 17:19:51"
"O000057O","Global","admin","admin@admin.com","2020-06-11","4","oversea","general","817-18","EXCLUSIVE WASHER FOR WINDOW CRYSTAL 18L","1","17215","17215","FC","Argentina","86","Test","Test","Test","-","amazon","","2020-06-11","INTERNATIONAL STANDARD SHIPMENT: EMS","Processing","2020-06-11 17:18:05"
"O000056O","Global","admin","admin@admin.com","2020-06-11","4","oversea","general","817-18","EXCLUSIVE WASHER FOR WINDOW CRYSTAL 18L","1","17215","17215","FC","Argentina","86","Test","Test","Test","-","amazon","","2020-06-11","INTERNATIONAL STANDARD SHIPMENT: EMS","Processing","2020-06-11 17:17:38"
"O000055O","Global","admin","admin@admin.com","2020-06-11","4","oversea","general","817-18","EXCLUSIVE WASHER FOR WINDOW CRYSTAL 18L","1","17215","17215","FC","Argentina","86","Test","Test","Test","-","paypal","","2020-06-11","INTERNATIONAL STANDARD SHIPMENT: EMS","Processing","2020-06-11 17:09:29"
"O000054O","Global","admin","admin@admin.com","2020-06-11","4","oversea","general","817-18","EXCLUSIVE WASHER FOR WINDOW CRYSTAL 18L","1","17215","17215","FC","Argentina","86","Test","Test","Test","-","paypal","","2020-06-11","INTERNATIONAL STANDARD SHIPMENT: EMS","Processing","2020-06-11 17:05:41"
"O000053O","Global","admin","admin@admin.com","2020-06-11","4","oversea","general","817-18","EXCLUSIVE WASHER FOR WINDOW CRYSTAL 18L","1","17215","17215","FC","Argentina","86","Test","Test","Test","-","paypal","","2020-06-11","INTERNATIONAL STANDARD SHIPMENT: EMS","Processing","2020-06-11 17:03:51"
"O000052O","Global","admin","admin@admin.com","2020-06-11","4","oversea","general","817-18","EXCLUSIVE WASHER FOR WINDOW CRYSTAL 18L","1","17215","17215","FC","Argentina","86","Test","Test","Test","-","paypal","","2020-06-11","INTERNATIONAL STANDARD SHIPMENT: EMS","Processing","2020-06-11 17:02:56"
"O000051O","Global","admin","admin@admin.com","2020-06-11","4","oversea","general","817-18","EXCLUSIVE WASHER FOR WINDOW CRYSTAL 18L","1","17215","17215","FC","Argentina","86","Test","Test","Test","-","paypal","","2020-06-11","INTERNATIONAL STANDARD SHIPMENT: EMS","Processing","2020-06-11 17:02:29"
"O000050O","Global","admin","admin@admin.com","2020-06-11","4","oversea","general","817-18","EXCLUSIVE WASHER FOR WINDOW CRYSTAL 18L","1","17215","17215","FC","Argentina","86","Test","Test","Test","-","paypal","","2020-06-11","INTERNATIONAL STANDARD SHIPMENT: EMS","Processing","2020-06-11 17:01:27"
"O000049O","Global","admin","admin@admin.com","2020-06-11","4","oversea","general","817-18","EXCLUSIVE WASHER FOR WINDOW CRYSTAL 18L","1","17215","17215","FC","Argentina","86","Test","Test","Test","-","paypal","","2020-06-11","INTERNATIONAL STANDARD SHIPMENT: EMS","Processing","2020-06-11 17:00:08"
"O000048O","Global","admin","admin@admin.com","2020-06-11","4","oversea","general","817-18","EXCLUSIVE WASHER FOR WINDOW CRYSTAL 18L","1","17215","17215","FC","Argentina","86","Test","Test","Test","-","paypal","","2020-06-11","INTERNATIONAL STANDARD SHIPMENT: EMS","Processing","2020-06-11 16:59:35"
"O000047O","Global","admin","admin@admin.com","2020-06-11","4","oversea","general","817-18","EXCLUSIVE WASHER FOR WINDOW CRYSTAL 18L","1","17215","17215","FC","Argentina","86","Test","Test","Test","-","paypal","","2020-06-11","INTERNATIONAL STANDARD SHIPMENT: EMS","Processing","2020-06-11 16:59:08"
"O000046O","Global","admin","admin@admin.com","2020-06-11","4","oversea","general","817-18","EXCLUSIVE WASHER FOR WINDOW CRYSTAL 18L","1","17215","17215","FC","Argentina","86","Test","Test","Test","-","paypal","","2020-06-11","INTERNATIONAL STANDARD SHIPMENT: EMS","Processing","2020-06-11 16:58:03"
"O000045O","Global","admin","admin@admin.com","2020-06-11","4","oversea","general","817-18","EXCLUSIVE WASHER FOR WINDOW CRYSTAL 18L","1","17215","17215","FC","Argentina","86","Test","Test","Test","-","paypal","","2020-06-11","INTERNATIONAL STANDARD SHIPMENT: EMS","Processing","2020-06-11 16:57:51"
"O000044O","Global","admin","admin@admin.com","2020-06-11","4","oversea","general","817-18","EXCLUSIVE WASHER FOR WINDOW CRYSTAL 18L","1","17215","17215","FC","Argentina","86","Test","Test","Test","-","amazon","","2020-06-11","INTERNATIONAL STANDARD SHIPMENT: EMS","Processing","2020-06-11 16:42:20"
"O000043O","Global","admin","admin@admin.com","2020-06-11","4","oversea","general","817-18","EXCLUSIVE WASHER FOR WINDOW CRYSTAL 18L","1","17215","17215","FC","Argentina","86","Test","Test","Test","-","amazon","","2020-06-11","INTERNATIONAL STANDARD SHIPMENT: EMS","Processing","2020-06-11 16:40:07"
"O000042O","Global","admin","admin@admin.com","2020-06-11","4","oversea","general","817-18","EXCLUSIVE WASHER FOR WINDOW CRYSTAL 18L","1","17215","17215","FC","Argentina","86","Test","Test","Test","-","amazon","","2020-06-11","INTERNATIONAL STANDARD SHIPMENT: EMS","Processing","2020-06-11 16:21:13"
"O000041O","Global","admin","admin@admin.com","2020-06-11","4","oversea","general","817-18","EXCLUSIVE WASHER FOR WINDOW CRYSTAL 18L","1","17215","17215","FC","Argentina","86","Test","Test","Test","-","amazon","","2020-06-11","INTERNATIONAL STANDARD SHIPMENT: EMS","Processing","2020-06-11 16:16:38"
"O000040O","Global","admin","admin@admin.com","2020-06-11","4","oversea","general","817-18","EXCLUSIVE WASHER FOR WINDOW CRYSTAL 18L","1","17215","17215","FC","Argentina","86","Test","Test","Test","-","amazon","","2020-06-11","INTERNATIONAL STANDARD SHIPMENT: EMS","Processing","2020-06-11 16:11:50"
"O000039O","Global","admin","admin@admin.com","2020-06-11","4","oversea","general","817-18","EXCLUSIVE WASHER FOR WINDOW CRYSTAL 18L","1","17215","17215","FC","Argentina","86","Test","Test","Test","-","amazon","","2020-06-11","INTERNATIONAL STANDARD SHIPMENT: EMS","Processing","2020-06-11 16:11:22"
"O000038O","Global","admin","admin@admin.com","2020-06-11","4","oversea","general","817-18","EXCLUSIVE WASHER FOR WINDOW CRYSTAL 18L","1","17215","17215","FC","Argentina","86","Test","Test","Test","-","amazon","","2020-06-11","INTERNATIONAL STANDARD SHIPMENT: EMS","Processing","2020-06-11 16:07:56"
"O000037O","Global","admin","admin@admin.com","2020-06-11","4","oversea","general","817-18","EXCLUSIVE WASHER FOR WINDOW CRYSTAL 18L","1","17215","17215","FC","Argentina","86","Test","Test","Test","-","amazon","","2020-06-11","INTERNATIONAL STANDARD SHIPMENT: EMS","Processing","2020-06-11 16:06:37"
"O000036O","Global","admin","admin@admin.com","2020-06-11","4","oversea","general","817-18","EXCLUSIVE WASHER FOR WINDOW CRYSTAL 18L","1","17215","17215","FC","Argentina","86","Test","Test","Test","-","amazon","","2020-06-11","INTERNATIONAL STANDARD SHIPMENT: EMS","Processing","2020-06-11 15:54:36"
"O000035O","Global","admin","admin@admin.com","2020-06-11","4","oversea","general","817-18","EXCLUSIVE WASHER FOR WINDOW CRYSTAL 18L","1","17215","17215","FC","Argentina","86","Test","Test","Test","-","amazon","","2020-06-11","INTERNATIONAL STANDARD SHIPMENT: EMS","Processing","2020-06-11 15:53:07"
"O000034O","Global","admin","admin@admin.com","2020-06-11","4","oversea","general","817-18","EXCLUSIVE WASHER FOR WINDOW CRYSTAL 18L","1","17215","17215","FC","Argentina","86","Test","Test","Test","-","amazon","","2020-06-11","INTERNATIONAL STANDARD SHIPMENT: EMS","Processing","2020-06-11 15:52:11"
"O000033O","Global","admin","admin@admin.com","2020-06-11","4","oversea","general","817-18","EXCLUSIVE WASHER FOR WINDOW CRYSTAL 18L","1","17215","17215","FC","Argentina","86","Test","Test","Test","-","amazon","","2020-06-11","INTERNATIONAL STANDARD SHIPMENT: EMS","Processing","2020-06-11 15:51:51"
"O000032O","Global","admin","admin@admin.com","2020-06-11","4","oversea","general","817-18","EXCLUSIVE WASHER FOR WINDOW CRYSTAL 18L","1","17215","17215","FC","Argentina","86","Test","Test","Test","-","amazon","","2020-06-11","INTERNATIONAL STANDARD SHIPMENT: EMS","Processing","2020-06-11 15:51:09"
"O000031O","Global","admin","admin@admin.com","2020-06-11","4","oversea","general","817-18","EXCLUSIVE WASHER FOR WINDOW CRYSTAL 18L","1","17215","17215","FC","Argentina","86","Test","Test","Test","-","amazon","","2020-06-11","INTERNATIONAL STANDARD SHIPMENT: EMS","Processing","2020-06-11 15:47:35"
"O000030O","Global","admin","admin@admin.com","2020-06-11","4","oversea","general","817-18","EXCLUSIVE WASHER FOR WINDOW CRYSTAL 18L","1","17215","17215","FC","Argentina","86","Test","Test","Test","-","amazon","","2020-06-11","INTERNATIONAL STANDARD SHIPMENT: EMS","Processing","2020-06-11 15:41:00"
"O000029O","Global","admin","admin@admin.com","2020-06-11","4","oversea","general","817-18","EXCLUSIVE WASHER FOR WINDOW CRYSTAL 18L","1","17215","17215","FC","Argentina","86","Test","Test","Test","-","amazon","","2020-06-11","INTERNATIONAL STANDARD SHIPMENT: EMS","Processing","2020-06-11 15:40:26"
"O000028O","Global","admin","admin@admin.com","2020-06-11","4","oversea","general","817-18","EXCLUSIVE WASHER FOR WINDOW CRYSTAL 18L","1","17215","17215","FC","Argentina","86","Test","Test","Test","-","amazon","","2020-06-11","INTERNATIONAL STANDARD SHIPMENT: EMS","Processing","2020-06-11 15:25:42"
"O000027O","Global","admin","admin@admin.com","2020-06-11","4","oversea","general","817-18","EXCLUSIVE WASHER FOR WINDOW CRYSTAL 18L","1","17215","17215","FC","Argentina","86","Test","Test","Test","-","amazon","","2020-06-11","INTERNATIONAL STANDARD SHIPMENT: EMS","Processing","2020-06-11 15:21:58"
"O000026O","Global","admin","admin@admin.com","2020-06-11","4","oversea","general","817-18","EXCLUSIVE WASHER FOR WINDOW CRYSTAL 18L","1","17215","17215","FC","Argentina","86","Test","Test","Test","-","amazon","","2020-06-11","INTERNATIONAL STANDARD SHIPMENT: EMS","Processing","2020-06-11 15:19:34"
"O000025O","Global","admin","admin@admin.com","2020-06-11","4","oversea","general","817-18","EXCLUSIVE WASHER FOR WINDOW CRYSTAL 18L","1","17215","17215","FC","Argentina","86","Test","Test","Test","-","amazon","","2020-06-11","INTERNATIONAL STANDARD SHIPMENT: EMS","Processing","2020-06-11 15:19:14"
"O000024O","Global","admin","admin@admin.com","2020-06-11","4","oversea","general","817-18","EXCLUSIVE WASHER FOR WINDOW CRYSTAL 18L","1","17215","17215","FC","Argentina","86","Test","Test","Test","-","amazon","","2020-06-11","INTERNATIONAL STANDARD SHIPMENT: EMS","Processing","2020-06-11 15:18:58"
"O000023O","Global","admin","admin@admin.com","2020-06-11","4","oversea","general","817-18","EXCLUSIVE WASHER FOR WINDOW CRYSTAL 18L","1","17215","17215","FC","Argentina","86","Test","Test","Test","-","amazon","","2020-06-11","INTERNATIONAL STANDARD SHIPMENT: EMS","Processing","2020-06-11 15:17:52"
"O000022O","Global","admin","admin@admin.com","2020-06-11","4","oversea","general","817-18","EXCLUSIVE WASHER FOR WINDOW CRYSTAL 18L","1","17215","17215","FC","Argentina","86","Test","Test","Test","-","amazon","","2020-06-11","INTERNATIONAL STANDARD SHIPMENT: EMS","Processing","2020-06-11 15:14:29"
"O000021O","Global","admin","admin@admin.com","2020-06-11","4","oversea","general","817-18","EXCLUSIVE WASHER FOR WINDOW CRYSTAL 18L","1","17215","17215","FC","Argentina","86","Test","Test","Test","-","amazon","","2020-06-11","INTERNATIONAL STANDARD SHIPMENT: EMS","Processing","2020-06-11 15:05:17"
"O000020O","Global","admin","admin@admin.com","2020-06-11","4","oversea","general","817-18","EXCLUSIVE WASHER FOR WINDOW CRYSTAL 18L","1","17215","17215","FC","Argentina","86","Test","Test","Test","-","amazon","","2020-06-11","INTERNATIONAL STANDARD SHIPMENT: EMS","Processing","2020-06-11 15:05:03"
"O000019O","Global","admin","admin@admin.com","2020-06-11","4","oversea","general","817-18","EXCLUSIVE WASHER FOR WINDOW CRYSTAL 18L","1","17215","17215","FC","Argentina","86","Test","Test","Test","-","amazon","","2020-06-11","INTERNATIONAL STANDARD SHIPMENT: EMS","Processing","2020-06-11 15:03:31"
"O000018O","Global","admin","admin@admin.com","2020-06-11","4","oversea","general","817-18","EXCLUSIVE WASHER FOR WINDOW CRYSTAL 18L","1","17215","17215","FC","Argentina","86","Test","Test","Test","-","amazon","","2020-06-11","INTERNATIONAL STANDARD SHIPMENT: EMS","Processing","2020-06-11 14:59:48"
"O000017O","Global","admin","admin@admin.com","2020-06-11","4","oversea","general","817-18","EXCLUSIVE WASHER FOR WINDOW CRYSTAL 18L","1","17215","17215","FC","Argentina","86","Test","Test","Test","-","amazon","","2020-06-11","INTERNATIONAL STANDARD SHIPMENT: EMS","Processing","2020-06-11 14:48:11"
"O000016O","Global","admin","admin@admin.com","2020-06-11","4","oversea","general","817-18","EXCLUSIVE WASHER FOR WINDOW CRYSTAL 18L","1","17215","17215","FC","Argentina","86","Test","Test","Test","-","amazon","","2020-06-11","INTERNATIONAL STANDARD SHIPMENT: EMS","Processing","2020-06-11 14:41:21"
"O000015O","Global","admin","admin@admin.com","2020-06-11","4","oversea","general","817-18","EXCLUSIVE WASHER FOR WINDOW CRYSTAL 18L","1","17215","17215","FC","Argentina","86","Test","Test","Test","-","amazon","","2020-06-11","INTERNATIONAL STANDARD SHIPMENT: EMS","Processing","2020-06-11 14:40:30"
"O000014O","Global","admin","admin@admin.com","2020-06-11","4","oversea","general","817-18","EXCLUSIVE WASHER FOR WINDOW CRYSTAL 18L","1","17215","17215","FC","Argentina","86","Test","Test","Test","-","amazon","","2020-06-11","INTERNATIONAL STANDARD SHIPMENT: EMS","Processing","2020-06-11 14:39:36"
"O000013O","Global","admin","admin@admin.com","2020-06-11","4","oversea","general","817-18","EXCLUSIVE WASHER FOR WINDOW CRYSTAL 18L","1","17215","17215","FC","Argentina","86","Test","Test","Test","-","amazon","","2020-06-11","INTERNATIONAL STANDARD SHIPMENT: EMS","Processing","2020-06-11 14:39:00"
"O000012O","Global","admin","admin@admin.com","2020-06-11","4","oversea","general","817-18","EXCLUSIVE WASHER FOR WINDOW CRYSTAL 18L","1","17215","17215","FC","Argentina","86","Test","Test","Test","-","amazon","","2020-06-11","INTERNATIONAL STANDARD SHIPMENT: EMS","Processing","2020-06-11 14:37:38"
"O000011O","Global","admin","admin@admin.com","2020-06-11","4","oversea","general","817-18","EXCLUSIVE WASHER FOR WINDOW CRYSTAL 18L","1","17215","17215","FC","Argentina","86","Test","Test","Test","-","amazon","","2020-06-11","INTERNATIONAL STANDARD SHIPMENT: EMS","Processing","2020-06-11 14:31:55"
"O000010O","Global","admin","admin@admin.com","2020-06-11","4","oversea","general","817-18","EXCLUSIVE WASHER FOR WINDOW CRYSTAL 18L","1","17215","17215","FC","Argentina","86","Test","Test","Test","-","amazon","","2020-06-11","INTERNATIONAL STANDARD SHIPMENT: EMS","Processing","2020-06-11 14:27:59"
"O000009O","Global","admin","admin@admin.com","2020-06-11","4","oversea","general","817-18","EXCLUSIVE WASHER FOR WINDOW CRYSTAL 18L","1","17215","17215","FC","Argentina","86","Test","Test","Test","-","amazon","","2020-06-11","INTERNATIONAL STANDARD SHIPMENT: EMS","Processing","2020-06-11 14:25:35"
"O000008O","Global","admin","admin@admin.com","2020-06-11","4","oversea","general","817-18","EXCLUSIVE WASHER FOR WINDOW CRYSTAL 18L","1","17215","17215","FC","Argentina","86","Test","Test","Test","-","amazon","","2020-06-11","INTERNATIONAL STANDARD SHIPMENT: EMS","Processing","2020-06-11 14:24:41"
"O000007O","Global","admin","admin@admin.com","2020-06-11","4","oversea","general","817-18","EXCLUSIVE WASHER FOR WINDOW CRYSTAL 18L","1","17215","17215","FC","Argentina","86","Test","Test","Test","-","amazon","","2020-06-11","INTERNATIONAL STANDARD SHIPMENT: EMS","Processing","2020-06-11 14:14:17"
"O000006O","Global","admin","admin@admin.com","2020-06-11","4","oversea","general","817-18","EXCLUSIVE WASHER FOR WINDOW CRYSTAL 18L","1","17215","17215","FC","Argentina","86","Test","Test","Test","-","amazon","","2020-06-11","INTERNATIONAL STANDARD SHIPMENT: EMS","Processing","2020-06-11 14:11:45"
"O000005O","Global","admin","admin@admin.com","2020-06-11","4","oversea","general","817-18","EXCLUSIVE WASHER FOR WINDOW CRYSTAL 18L","1","17215","17215","FC","Argentina","86","Test","Test","Test","-","amazon","","2020-06-11","INTERNATIONAL STANDARD SHIPMENT: EMS","Processing","2020-06-11 14:02:33"
"O000004O","Global","admin","admin@admin.com","2020-06-11","4","oversea","general","817-18","EXCLUSIVE WASHER FOR WINDOW CRYSTAL 18L","1","17215","17215","FC","Argentina","86","Test","Test","Test","-","amazon","","2020-06-11","INTERNATIONAL STANDARD SHIPMENT: EMS","Processing","2020-06-11 13:40:11"
"O000003O","Global","admin","admin@admin.com","2020-06-11","4","oversea","general","817-18","EXCLUSIVE WASHER FOR WINDOW CRYSTAL 18L","1","17215","17215","FC","Argentina","86","Test","Test","Test","-","amazon","","2020-06-11","INTERNATIONAL STANDARD SHIPMENT: EMS","Processing","2020-06-11 13:30:42"
"O000002O","Global","admin","admin@admin.com","2020-06-11","4","oversea","general","817-18","EXCLUSIVE WASHER FOR WINDOW CRYSTAL 18L","1","17215","17215","FC","Argentina","86","Test","Test","Test","-","amazon","","2020-06-11","INTERNATIONAL STANDARD SHIPMENT: EMS","Processing","2020-06-11 13:19:09"
